APB_UVM_Verification/dump.vcd
$date
Thu Jan 29 09:13:27 2026
$end
$version
Riviera-PRO Version 2023.04.112.8911
$end
$timescale
1 ns
$end

$scope module top $end

$scope module apbif $end
$var reg 1 ! pclk $end
$var reg 1 " prst $end
$var reg 1 # psel $end
$var reg 8 $ paddr [7:0] $end
$var reg 8 % pwdata [7:0] $end
$var reg 1 & penable $end
$var reg 1 ' pwrite $end
$var reg 8 ( prdata [7:0] $end
$var reg 1 ) pready $end
$var reg 1 * pslverr $end
$upscope $end


$scope module dut $end
$var wire 1 + pclk $end
$var wire 1 , prst $end
$var wire 1 - psel $end
$var wire 8 . paddr [7:0] $end
$var wire 8 / pwdata [7:0] $end
$var wire 1 0 penable $end
$var wire 1 1 pwrite $end
$var wire 1 2 pslverr $end
$var reg 8 3 prdata [7:0] $end
$var reg 1 4 pready $end
$var reg 2 5 state [1:0] $end
$var reg 2 6 nstate [1:0] $end
$var reg 1 7 addr_err $end
$var reg 1 8 addv_err $end
$var reg 1 9 data_err $end
$var reg 1 : add_value $end
$var reg 1 ; data_value $end
$var parameter 2 < idle [1:0] $end
$var parameter 2 = write [1:0] $end
$var parameter 2 > read [1:0] $end
$upscope $end

$upscope $end

$enddefinitions $end
$dumpvars
0!
0"
0#
b0 $
b0 %
0&
0'
b0 (
0)
0*
0+
0,
0-
b0 .
b0 /
00
01
02
b0 3
04
b0 5
b0 6
07
08
09
0:
0;
b0 <
b1 =
b10 >
$end
#5
1!
1+
#10
0!
0+
#15
1!
1+
#20
0!
0+
#25
1!
1+
#30
0!
0+
#35
1!
1+
#40
0!
0+
#45
1!
1+
1"
1,
#50
0!
0+
#55
1!
1+
1#
b1001 %
b1111010 $
1'
11
b1111010 .
b1001 /
1-
b1 6
#60
0!
0+
#65
1!
1+
1&
b1 5
10
14
b0 6
1)
#70
0!
0+
#75
1!
1+
0#
0&
0'
b0 5
01
00
0-
04
0)
#80
0!
0+
#85
1!
1+
1#
b100 %
b11100111 $
1'
11
b11100111 .
b100 /
1-
17
b1 6
#90
0!
0+
#95
1!
1+
1&
b1 5
10
12
1*
b0 6
14
1)
#100
0!
0+
#105
1!
1+
0#
0&
0'
b0 5
01
00
0-
02
0*
04
0)
#110
0!
0+
#115
1!
1+
1#
b1101001 %
b11000001 $
1'
11
b11000001 .
b1101001 /
1-
07
b1 6
#120
0!
0+
#125
1!
1+
1&
b1 5
10
14
b0 6
1)
#130
0!
0+
#135
1!
1+
0#
0&
0'
b0 5
01
00
0-
04
0)
#140
0!
0+
#145
1!
1+
1#
b11101110 %
b1000 $
1'
11
b1000 .
b11101110 /
1-
b1 6
#150
0!
0+
#155
1!
1+
1&
b1 5
10
14
b0 6
1)
#160
0!
0+
#165
1!
1+
0#
0&
0'
b0 5
01
00
0-
04
0)
#170
0!
0+
#175
1!
1+
1#
b11100000 %
b10111100 $
1'
11
b10111100 .
b11100000 /
1-
b1 6
#180
0!
0+
#185
1!
1+
1&
b1 5
10
14
b0 6
1)
#190
0!
0+
#195
1!
1+
0#
0&
0'
b0 5
01
00
0-
04
0)
#200
0!
0+
#205
1!
1+
1#
b10010100 %
b11011101 $
1'
11
b11011101 .
b10010100 /
1-
17
b1 6
#210
0!
0+
#215
1!
1+
1&
b1 5
10
12
1*
b0 6
14
1)
#220
0!
0+
#225
1!
1+
0#
0&
0'
b0 5
01
00
0-
02
0*
04
0)
#230
0!
0+
#235
1!
1+
1#
b11011001 %
b1101011 $
1'
11
b1101011 .
b11011001 /
1-
07
b1 6
#240
0!
0+
#245
1!
1+
1&
b1 5
10
14
b0 6
1)
#250
0!
0+
#255
1!
1+
0#
0&
0'
b0 5
01
00
0-
04
0)
#260
0!
0+
#265
1!
1+
1#
b10100000 %
b1100110 $
1'
11
b1100110 .
b10100000 /
1-
b1 6
#270
0!
0+
#275
1!
1+
1&
b1 5
10
14
b0 6
1)
#280
0!
0+
#285
1!
1+
0#
0&
0'
b0 5
01
00
0-
04
0)
#290
0!
0+
#295
1!
1+
1#
b11000101 %
b11001110 $
1'
11
b11001110 .
b11000101 /
1-
17
b1 6
#300
0!
0+
#305
1!
1+
1&
b1 5
10
12
1*
b0 6
14
1)
#310
0!
0+
#315
1!
1+
0#
0&
0'
b0 5
01
00
0-
02
0*
04
0)
#320
0!
0+
#325
1!
1+
1#
b1101110 %
b10100011 $
1'
11
b10100011 .
b1101110 /
1-
07
b1 6
#330
0!
0+
#335
1!
1+
1&
b1 5
10
14
b0 6
1)
#340
0!
0+
#345
1!
1+
0#
0&
0'
b0 5
01
00
0-
04
0)
#350
0!
0+
#355
1!
1+
1#
b10011000 %
b11100101 $
1'
11
b11100101 .
b10011000 /
1-
17
b1 6
#360
0!
0+
#365
1!
1+
1&
b1 5
10
12
1*
b0 6
14
1)
#370
0!
0+
#375
1!
1+
0#
0&
0'
b0 5
01
00
0-
02
0*
04
0)
#380
0!
0+
#385
1!
1+
1#
b111110 %
b10010100 $
1'
11
b10010100 .
b111110 /
1-
07
b1 6
#390
0!
0+
#395
1!
1+
1&
b1 5
10
14
b0 6
1)
#400
0!
0+
#405
1!
1+
0#
0&
0'
b0 5
01
00
0-
04
0)
#410
0!
0+
#415
1!
1+
1#
b1000110 %
b10110000 $
1'
11
b10110000 .
b1000110 /
1-
b1 6
#420
0!
0+
#425
1!
1+
1&
b1 5
10
14
b0 6
1)
#430
0!
0+
#435
1!
1+
0#
0&
0'
b0 5
01
00
0-
04
0)
#440
0!
0+
#445
1!
1+
1#
b1010101 %
b111001 $
1'
11
b111001 .
b1010101 /
1-
b1 6
#450
0!
0+
#455
1!
1+
1&
b1 5
10
14
b0 6
1)
#460
0!
0+
#465
1!
1+
0#
0&
0'
b0 5
01
00
0-
04
0)
#470
0!
0+
#475
1!
1+
1#
b11010011 %
b101111 $
1'
11
b101111 .
b11010011 /
1-
b1 6
#480
0!
0+
#485
1!
1+
1&
b1 5
10
14
b0 6
1)
#490
0!
0+
#495
1!
1+
0#
0&
0'
b0 5
01
00
0-
04
0)
#500
0!
0+
#505
1!
1+
1#
b110101 %
b10010010 $
1'
11
b10010010 .
b110101 /
1-
b1 6
#510
0!
0+
#515
1!
1+
1&
b1 5
10
14
b0 6
1)
#520
0!
0+
#525
1!
1+
0#
0&
0'
b0 5
01
00
0-
04
0)
#530
0!
0+
#535
1!
1+
1#
b10011110 %
b1100010 $
1'
11
b1100010 .
b10011110 /
1-
b1 6
#540
0!
0+
#545
1!
1+
1&
b1 5
10
14
b0 6
1)
#550
0!
0+
#555
1!
1+
0#
0&
0'
b0 5
01
00
0-
04
0)
#560
0!
0+
#565
1!
1+
1#
b10100101 %
b10011111 $
1'
11
b10011111 .
b10100101 /
1-
b1 6
#570
0!
0+
#575
1!
1+
1&
b1 5
10
14
b0 6
1)
#580
0!
0+
#585
1!
1+
0#
0&
0'
b0 5
01
00
0-
04
0)
#590
0!
0+
#595
1!
1+
1#
b11101 %
b1001001 $
1'
11
b1001001 .
b11101 /
1-
b1 6
#600
0!
0+
#605
1!
1+
1&
b1 5
10
14
b0 6
1)
#610
0!
0+
#615
1!
1+
0#
0&
0'
b0 5
01
00
0-
04
0)
#620
0!
0+
#625
1!
1+
1#
b1111110 %
b1100000 $
1'
11
b1100000 .
b1111110 /
1-
b1 6
#630
0!
0+
#635
1!
1+
1&
b1 5
10
14
b0 6
1)
#640
0!
0+
#645
1!
1+
0#
0&
0'
b0 5
01
00
0-
04
0)
#650
0!
0+
#655
1!
1+
1#
b11000100 %
b11100100 $
1'
11
b11100100 .
b11000100 /
1-
17
b1 6
#660
0!
0+
#665
1!
1+
1&
b1 5
10
12
1*
b0 6
14
1)
#670
0!
0+
#675
1!
1+
0#
0&
0'
b0 5
01
00
0-
02
0*
04
0)
#680
0!
0+
#685
1!
1+
1#
b11111010 %
b11010101 $
1'
11
b11010101 .
b11111010 /
1-
b1 6
#690
0!
0+
#695
1!
1+
1&
b1 5
10
12
1*
b0 6
14
1)
#700
0!
0+
#705
1!
1+
0#
0&
0'
b0 5
01
00
0-
02
0*
04
0)
#710
0!
0+
#715
1!
1+
1#
b11001101 %
b110011 $
1'
11
b110011 .
b11001101 /
1-
07
b1 6
#720
0!
0+
#725
1!
1+
1&
b1 5
10
14
b0 6
1)
#730
0!
0+
#735
1!
1+
0#
0&
0'
b0 5
01
00
0-
04
0)
#740
0!
0+
#745
1!
1+
1#
b111011 %
b11111110 $
1'
11
b11111110 .
b111011 /
1-
17
b1 6
#750
0!
0+
#755
1!
1+
1&
b1 5
10
12
1*
b0 6
14
1)
#760
0!
0+
#765
1!
1+
0#
0&
0'
b0 5
01
00
0-
02
0*
04
0)
#770
0!
0+
#775
1!
1+
1#
b11101001 %
b110110 $
1'
11
b110110 .
b11101001 /
1-
07
b1 6
#780
0!
0+
#785
1!
1+
1&
b1 5
10
14
b0 6
1)
#790
0!
0+
#795
1!
1+
0#
0&
0'
b0 5
01
00
0-
04
0)
#800
0!
0+
#805
1!
1+
1#
b10100011 %
b11011011 $
1'
11
b11011011 .
b10100011 /
1-
17
b1 6
#810
0!
0+
#815
1!
1+
1&
b1 5
10
12
1*
b0 6
14
1)
#820
0!
0+
#825
1!
1+
0#
0&
0'
b0 5
01
00
0-
02
0*
04
0)
#830
0!
0+
#835
1!
1+
1#
b1110111 %
b11101101 $
1'
11
b11101101 .
b1110111 /
1-
b1 6
#840
0!
0+
#845
1!
1+
1&
b1 5
10
12
1*
b0 6
14
1)
#850
0!
0+
#855
1!
1+
0#
0&
0'
b0 5
01
00
0-
02
0*
04
0)
#860
0!
0+
#865
1!
1+
1#
b11011000 %
b1101100 $
1'
11
b1101100 .
b11011000 /
1-
07
b1 6
#870
0!
0+
#875
1!
1+
1&
b1 5
10
14
b0 6
1)
#880
0!
0+
#885
1!
1+
0#
0&
0'
b0 5
01
00
0-
04
0)
#890
0!
0+
#895
1!
1+
1#
b1001010 %
b1011000 $
1'
11
b1011000 .
b1001010 /
1-
b1 6
#900
0!
0+
#905
1!
1+
1&
b1 5
10
14
b0 6
1)
#910
0!
0+
#915
1!
1+
0#
0&
0'
b0 5
01
00
0-
04
0)
#920
0!
0+
#925
1!
1+
1#
b110001 %
b10110001 $
1'
11
b10110001 .
b110001 /
1-
b1 6
#930
0!
0+
#935
1!
1+
1&
b1 5
10
14
b0 6
1)
#940
0!
0+
#945
1!
1+
0#
0&
0'
b0 5
01
00
0-
04
0)
#950
0!
0+
#955
1!
1+
1#
b1100000 %
b1110111 $
1'
11
b1110111 .
b1100000 /
1-
b1 6
#960
0!
0+
#965
1!
1+
1&
b1 5
10
14
b0 6
1)
#970
0!
0+
#975
1!
1+
0#
0&
0'
b0 5
01
00
0-
04
0)
#980
0!
0+
#985
1!
1+
1#
b100001 %
b10101010 $
1'
11
b10101010 .
b100001 /
1-
b1 6
#990
0!
0+
#995
1!
1+
1&
b1 5
10
14
b0 6
1)
#1000
0!
0+
#1005
1!
1+
0#
0&
0'
b0 5
01
00
0-
04
0)
#1010
0!
0+
#1015
1!
1+
1#
b11101011 %
b1001010 $
1'
11
b1001010 .
b11101011 /
1-
b1 6
#1020
0!
0+
#1025
1!
1+
1&
b1 5
10
14
b0 6
1)
#1030
0!
0+
#1035
1!
1+
0#
0&
0'
b0 5
01
00
0-
04
0)
#1040
0!
0+
#1045
1!
1+
1#
b1110000 %
b1010111 $
1'
11
b1010111 .
b1110000 /
1-
b1 6
#1050
0!
0+
#1055
1!
1+
1&
b1 5
10
14
b0 6
1)
#1060
0!
0+
#1065
1!
1+
0#
0&
0'
b0 5
01
00
0-
04
0)
#1070
0!
0+
#1075
1!
1+
1#
b1110001 %
b11010001 $
1'
11
b11010001 .
b1110001 /
1-
17
b1 6
#1080
0!
0+
#1085
1!
1+
1&
b1 5
10
12
1*
b0 6
14
1)
#1090
0!
0+
#1095
1!
1+
0#
0&
0'
b0 5
01
00
0-
02
0*
04
0)
#1100
0!
0+
#1105
1!
1+
1#
b1111010 %
b10111000 $
1'
11
b10111000 .
b1111010 /
1-
07
b1 6
#1110
0!
0+
#1115
1!
1+
1&
b1 5
10
14
b0 6
1)
#1120
0!
0+
#1125
1!
1+
0#
0&
0'
b0 5
01
00
0-
04
0)
#1130
0!
0+
#1135
1!
1+
1#
b10100011 %
b1100 $
1'
11
b1100 .
b10100011 /
1-
b1 6
#1140
0!
0+
#1145
1!
1+
1&
b1 5
10
14
b0 6
1)
#1150
0!
0+
#1155
1!
1+
0#
0&
0'
b0 5
01
00
0-
04
0)
#1160
0!
0+
#1165
1!
1+
1#
b10101100 %
b11001101 $
1'
11
b11001101 .
b10101100 /
1-
17
b1 6
#1170
0!
0+
#1175
1!
1+
1&
b1 5
10
12
1*
b0 6
14
1)
#1180
0!
0+
#1185
1!
1+
0#
0&
0'
b0 5
01
00
0-
02
0*
04
0)
#1190
0!
0+
#1195
1!
1+
1#
b1101010 %
b11111011 $
1'
11
b11111011 .
b1101010 /
1-
b1 6
#1200
0!
0+
#1205
1!
1+
1&
b1 5
10
12
1*
b0 6
14
1)
#1210
0!
0+
#1215
1!
1+
0#
0&
0'
b0 5
01
00
0-
02
0*
04
0)
#1220
0!
0+
#1225
1!
1+
1#
b10011000 %
b10010110 $
1'
11
b10010110 .
b10011000 /
1-
07
b1 6
#1230
0!
0+
#1235
1!
1+
1&
b1 5
10
14
b0 6
1)
#1240
0!
0+
#1245
1!
1+
0#
0&
0'
b0 5
01
00
0-
04
0)
#1250
0!
0+
#1255
1!
1+
1#
b10011100 %
b10011110 $
1'
11
b10011110 .
b10011100 /
1-
b1 6
#1260
0!
0+
#1265
1!
1+
1&
b1 5
10
14
b0 6
1)
#1270
0!
0+
#1275
1!
1+
0#
0&
0'
b0 5
01
00
0-
04
0)
#1280
0!
0+
#1285
1!
1+
1#
b1010 %
b10011 $
1'
11
b10011 .
b1010 /
1-
b1 6
#1290
0!
0+
#1295
1!
1+
1&
b1 5
10
14
b0 6
1)
#1300
0!
0+
#1305
1!
1+
0#
0&
0'
b0 5
01
00
0-
04
0)
#1310
0!
0+
#1315
1!
1+
1#
b1001011 %
b11110101 $
1'
11
b11110101 .
b1001011 /
1-
17
b1 6
#1320
0!
0+
#1325
1!
1+
1&
b1 5
10
12
1*
b0 6
14
1)
#1330
0!
0+
#1335
1!
1+
0#
0&
0'
b0 5
01
00
0-
02
0*
04
0)
#1340
0!
0+
#1345
1!
1+
1#
b110110 %
b1000100 $
1'
11
b1000100 .
b110110 /
1-
07
b1 6
#1350
0!
0+
#1355
1!
1+
1&
b1 5
10
14
b0 6
1)
#1360
0!
0+
#1365
1!
1+
0#
0&
0'
b0 5
01
00
0-
04
0)
#1370
0!
0+
#1375
1!
1+
1#
b100100 %
b0 $
1'
11
b0 .
b100100 /
1-
b1 6
#1380
0!
0+
#1385
1!
1+
1&
b1 5
10
14
b0 6
1)
#1390
0!
0+
#1395
1!
1+
0#
0&
0'
b0 5
01
00
0-
04
0)
#1400
0!
0+
#1405
1!
1+
1#
b1101101 %
b101001 $
1'
11
b101001 .
b1101101 /
1-
b1 6
#1410
0!
0+
#1415
1!
1+
1&
b1 5
10
14
b0 6
1)
#1420
0!
0+
#1425
1!
1+
0#
0&
0'
b0 5
01
00
0-
04
0)
#1430
0!
0+
#1435
1!
1+
1#
b10000 %
b10111111 $
1'
11
b10111111 .
b10000 /
1-
b1 6
#1440
0!
0+
#1445
1!
1+
1&
b1 5
10
14
b0 6
1)
#1450
0!
0+
#1455
1!
1+
0#
0&
0'
b0 5
01
00
0-
04
0)
#1460
0!
0+
#1465
1!
1+
1#
b10101110 %
b11000010 $
1'
11
b11000010 .
b10101110 /
1-
b1 6
#1470
0!
0+
#1475
1!
1+
1&
b1 5
10
14
b0 6
1)
#1480
0!
0+
#1485
1!
1+
0#
0&
0'
b0 5
01
00
0-
04
0)
#1490
0!
0+
#1495
1!
1+
1#
b11101111 %
b110010 $
1'
11
b110010 .
b11101111 /
1-
b1 6
#1500
0!
0+
#1505
1!
1+
1&
b1 5
10
14
b0 6
1)
#1510
0!
0+
#1515
1!
1+
0#
0&
0'
b0 5
01
00
0-
04
0)
#1520
0!
0+
#1525
1!
1+
1#
b10111101 %
b1111 $
1'
11
b1111 .
b10111101 /
1-
b1 6
#1530
0!
0+
#1535
1!
1+
1&
b1 5
10
14
b0 6
1)
#1540
0!
0+
#1545
1!
1+
0#
0&
0'
b0 5
01
00
0-
04
0)
#1550
0!
0+
#1555
1!
1+
1#
b10010010 %
b1011001 $
1'
11
b1011001 .
b10010010 /
1-
b1 6
#1560
0!
0+
#1565
1!
1+
1&
b1 5
10
14
b0 6
1)
#1570
0!
0+
#1575
1!
1+
0#
0&
0'
b0 5
01
00
0-
04
0)
#1580
0!
0+
#1585
1!
1+
1#
b1100 %
b10000 $
1'
11
b10000 .
b1100 /
1-
b1 6
#1590
0!
0+
#1595
1!
1+
1&
b1 5
10
14
b0 6
1)
#1600
0!
0+
#1605
1!
1+
0#
0&
0'
b0 5
01
00
0-
04
0)
#1610
0!
0+
#1615
1!
1+
1#
b1110 %
b110100 $
1'
11
b110100 .
b1110 /
1-
b1 6
#1620
0!
0+
#1625
1!
1+
1&
b1 5
10
14
b0 6
1)
#1630
0!
0+
#1635
1!
1+
0#
0&
0'
b0 5
01
00
0-
04
0)
#1640
0!
0+
#1645
1!
1+
1#
b10101000 %
b11000101 $
1'
11
b11000101 .
b10101000 /
1-
b1 6
#1650
0!
0+
#1655
1!
1+
1&
b1 5
10
14
b0 6
1)
#1660
0!
0+
#1665
1!
1+
0#
0&
0'
b0 5
01
00
0-
04
0)
#1670
0!
0+
#1675
1!
1+
1#
b10010111 %
b11000011 $
1'
11
b11000011 .
b10010111 /
1-
b1 6
#1680
0!
0+
#1685
1!
1+
1&
b1 5
10
14
b0 6
1)
#1690
0!
0+
#1695
1!
1+
0#
0&
0'
b0 5
01
00
0-
04
0)
#1700
0!
0+
#1705
1!
1+
1#
b1110001 %
b101110 $
1'
11
b101110 .
b1110001 /
1-
b1 6
#1710
0!
0+
#1715
1!
1+
1&
b1 5
10
14
b0 6
1)
#1720
0!
0+
#1725
1!
1+
0#
0&
0'
b0 5
01
00
0-
04
0)
#1730
0!
0+
#1735
1!
1+
1#
b111111 %
b110 $
1'
11
b110 .
b111111 /
1-
b1 6
#1740
0!
0+
#1745
1!
1+
1&
b1 5
10
14
b0 6
1)
#1750
0!
0+
#1755
1!
1+
0#
0&
0'
b0 5
01
00
0-
04
0)
#1760
0!
0+
#1765
1!
1+
1#
b11101001 %
b1001011 $
1'
11
b1001011 .
b11101001 /
1-
b1 6
#1770
0!
0+
#1775
1!
1+
1&
b1 5
10
14
b0 6
1)
#1780
0!
0+
#1785
1!
1+
0#
0&
0'
b0 5
01
00
0-
04
0)
#1790
0!
0+
#1795
1!
1+
1#
b100111 %
b11111101 $
1'
11
b11111101 .
b100111 /
1-
17
b1 6
#1800
0!
0+
#1805
1!
1+
1&
b1 5
10
12
1*
b0 6
14
1)
#1810
0!
0+
#1815
1!
1+
0#
0&
0'
b0 5
01
00
0-
02
0*
04
0)
#1820
0!
0+
#1825
1!
1+
1#
b10 %
b11100 $
1'
11
b11100 .
b10 /
1-
07
b1 6
#1830
0!
0+
#1835
1!
1+
1&
b1 5
10
14
b0 6
1)
#1840
0!
0+
#1845
1!
1+
0#
0&
0'
b0 5
01
00
0-
04
0)
#1850
0!
0+
#1855
1!
1+
1#
b1110010 %
b10101000 $
1'
11
b10101000 .
b1110010 /
1-
b1 6
#1860
0!
0+
#1865
1!
1+
1&
b1 5
10
14
b0 6
1)
#1870
0!
0+
#1875
1!
1+
0#
0&
0'
b0 5
01
00
0-
04
0)
#1880
0!
0+
#1885
1!
1+
1#
b10110110 %
b10100001 $
1'
11
b10100001 .
b10110110 /
1-
b1 6
#1890
0!
0+
#1895
1!
1+
1&
b1 5
10
14
b0 6
1)
#1900
0!
0+
#1905
1!
1+
0#
0&
0'
b0 5
01
00
0-
04
0)
#1910
0!
0+
#1915
1!
1+
1#
b1101000 %
b111 $
1'
11
b111 .
b1101000 /
1-
b1 6
#1920
0!
0+
#1925
1!
1+
1&
b1 5
10
14
b0 6
1)
#1930
0!
0+
#1935
1!
1+
0#
0&
0'
b0 5
01
00
0-
04
0)
#1940
0!
0+
#1945
1!
1+
1#
b11001 %
b11011010 $
1'
11
b11011010 .
b11001 /
1-
17
b1 6
#1950
0!
0+
#1955
1!
1+
1&
b1 5
10
12
1*
b0 6
14
1)
#1960
0!
0+
#1965
1!
1+
0#
0&
0'
b0 5
01
00
0-
02
0*
04
0)
#1970
0!
0+
#1975
1!
1+
1#
b111001 %
b11010 $
1'
11
b11010 .
b111001 /
1-
07
b1 6
#1980
0!
0+
#1985
1!
1+
1&
b1 5
10
14
b0 6
1)
#1990
0!
0+
#1995
1!
1+
0#
0&
0'
b0 5
01
00
0-
04
0)
#2000
0!
0+
#2005
1!
1+
1#
b10011001 %
b11000111 $
1'
11
b11000111 .
b10011001 /
1-
b1 6
#2010
0!
0+
#2015
1!
1+
1&
b1 5
10
14
b0 6
1)
#2020
0!
0+
#2025
1!
1+
0#
0&
0'
b0 5
01
00
0-
04
0)
#2030
0!
0+
#2035
1!
1+
1#
b1011001 %
b11100001 $
1'
11
b11100001 .
b1011001 /
1-
17
b1 6
#2040
0!
0+
#2045
1!
1+
1&
b1 5
10
12
1*
b0 6
14
1)
#2050
0!
0+
#2055
1!
1+
0#
0&
0'
b0 5
01
00
0-
02
0*
04
0)
#2060
0!
0+
#2065
1!
1+
1#
b11011110 %
b1101000 $
1'
11
b1101000 .
b11011110 /
1-
07
b1 6
#2070
0!
0+
#2075
1!
1+
1&
b1 5
10
14
b0 6
1)
#2080
0!
0+
#2085
1!
1+
0#
0&
0'
b0 5
01
00
0-
04
0)
#2090
0!
0+
#2095
1!
1+
1#
b10101011 %
b1011100 $
1'
11
b1011100 .
b10101011 /
1-
b1 6
#2100
0!
0+
#2105
1!
1+
1&
b1 5
10
14
b0 6
1)
#2110
0!
0+
#2115
1!
1+
0#
0&
0'
b0 5
01
00
0-
04
0)
#2120
0!
0+
#2125
1!
1+
1#
b1111111 %
b10111101 $
1'
11
b10111101 .
b1111111 /
1-
b1 6
#2130
0!
0+
#2135
1!
1+
1&
b1 5
10
14
b0 6
1)
#2140
0!
0+
#2145
1!
1+
0#
0&
0'
b0 5
01
00
0-
04
0)
#2150
0!
0+
#2155
1!
1+
1#
b11101001 %
b10001011 $
1'
11
b10001011 .
b11101001 /
1-
b1 6
#2160
0!
0+
#2165
1!
1+
1&
b1 5
10
14
b0 6
1)
#2170
0!
0+
#2175
1!
1+
0#
0&
0'
b0 5
01
00
0-
04
0)
#2180
0!
0+
#2185
1!
1+
1#
b11111 %
b11000110 $
1'
11
b11000110 .
b11111 /
1-
b1 6
#2190
0!
0+
#2195
1!
1+
1&
b1 5
10
14
b0 6
1)
#2200
0!
0+
#2205
1!
1+
0#
0&
0'
b0 5
01
00
0-
04
0)
#2210
0!
0+
#2215
1!
1+
1#
b11110101 %
b1101110 $
1'
11
b1101110 .
b11110101 /
1-
b1 6
#2220
0!
0+
#2225
1!
1+
1&
b1 5
10
14
b0 6
1)
#2230
0!
0+
#2235
1!
1+
0#
0&
0'
b0 5
01
00
0-
04
0)
#2240
0!
0+
#2245
1!
1+
1#
b10000011 $
1'
11
b10000011 .
1-
b1 6
#2250
0!
0+
#2255
1!
1+
1&
b1 5
10
14
b0 6
1)
#2260
0!
0+
#2265
1!
1+
0#
0&
0'
b0 5
01
00
0-
04
0)
#2270
0!
0+
#2275
1!
1+
1#
b1110011 %
b101 $
1'
11
b101 .
b1110011 /
1-
b1 6
#2280
0!
0+
#2285
1!
1+
1&
b1 5
10
14
b0 6
1)
#2290
0!
0+
#2295
1!
1+
0#
0&
0'
b0 5
01
00
0-
04
0)
#2300
0!
0+
#2305
1!
1+
1#
b1010000 %
b11110100 $
1'
11
b11110100 .
b1010000 /
1-
17
b1 6
#2310
0!
0+
#2315
1!
1+
1&
b1 5
10
12
1*
b0 6
14
1)
#2320
0!
0+
#2325
1!
1+
0#
0&
0'
b0 5
01
00
0-
02
0*
04
0)
#2330
0!
0+
#2335
1!
1+
1#
b1100 %
b1010000 $
1'
11
b1010000 .
b1100 /
1-
07
b1 6
#2340
0!
0+
#2345
1!
1+
1&
b1 5
10
14
b0 6
1)
#2350
0!
0+
#2355
1!
1+
0#
0&
0'
b0 5
01
00
0-
04
0)
#2360
0!
0+
#2365
1!
1+
1#
b11010100 %
b11001 $
1'
11
b11001 .
b11010100 /
1-
b1 6
#2370
0!
0+
#2375
1!
1+
1&
b1 5
10
14
b0 6
1)
#2380
0!
0+
#2385
1!
1+
0#
0&
0'
b0 5
01
00
0-
04
0)
#2390
0!
0+
#2395
1!
1+
1#
b10111101 %
b1001111 $
1'
11
b1001111 .
b10111101 /
1-
b1 6
#2400
0!
0+
#2405
1!
1+
1&
b1 5
10
14
b0 6
1)
#2410
0!
0+
#2415
1!
1+
0#
0&
0'
b0 5
01
00
0-
04
0)
#2420
0!
0+
#2425
1!
1+
1#
b100101 %
b11110010 $
1'
11
b11110010 .
b100101 /
1-
17
b1 6
#2430
0!
0+
#2435
1!
1+
1&
b1 5
10
12
1*
b0 6
14
1)
#2440
0!
0+
#2445
1!
1+
0#
0&
0'
b0 5
01
00
0-
02
0*
04
0)
#2450
0!
0+
#2455
1!
1+
1#
b10101110 %
b10 $
1'
11
b10 .
b10101110 /
1-
07
b1 6
#2460
0!
0+
#2465
1!
1+
1&
b1 5
10
14
b0 6
1)
#2470
0!
0+
#2475
1!
1+
0#
0&
0'
b0 5
01
00
0-
04
0)
#2480
0!
0+
#2485
1!
1+
1#
b1010100 %
b1111111 $
1'
11
b1111111 .
b1010100 /
1-
b1 6
#2490
0!
0+
#2495
1!
1+
1&
b1 5
10
14
b0 6
1)
#2500
0!
0+
#2505
1!
1+
0#
0&
0'
b0 5
01
00
0-
04
0)
#2510
0!
0+
#2515
1!
1+
1#
b1001101 %
b1101001 $
1'
11
b1101001 .
b1001101 /
1-
b1 6
#2520
0!
0+
#2525
1!
1+
1&
b1 5
10
14
b0 6
1)
#2530
0!
0+
#2535
1!
1+
0#
0&
0'
b0 5
01
00
0-
04
0)
#2540
0!
0+
#2545
1!
1+
1#
b1101110 %
b11000000 $
1'
11
b11000000 .
b1101110 /
1-
b1 6
#2550
0!
0+
#2555
1!
1+
1&
b1 5
10
14
b0 6
1)
#2560
0!
0+
#2565
1!
1+
0#
0&
0'
b0 5
01
00
0-
04
0)
#2570
0!
0+
#2575
1!
1+
1#
b1111000 %
b10000100 $
1'
11
b10000100 .
b1111000 /
1-
b1 6
#2580
0!
0+
#2585
1!
1+
1&
b1 5
10
14
b0 6
1)
#2590
0!
0+
#2595
1!
1+
0#
0&
0'
b0 5
01
00
0-
04
0)
#2600
0!
0+
#2605
1!
1+
1#
b11001010 %
b10110101 $
1'
11
b10110101 .
b11001010 /
1-
b1 6
#2610
0!
0+
#2615
1!
1+
1&
b1 5
10
14
b0 6
1)
#2620
0!
0+
#2625
1!
1+
0#
0&
0'
b0 5
01
00
0-
04
0)
#2630
0!
0+
#2635
1!
1+
1#
b11111101 %
b1010011 $
1'
11
b1010011 .
b11111101 /
1-
b1 6
#2640
0!
0+
#2645
1!
1+
1&
b1 5
10
14
b0 6
1)
#2650
0!
0+
#2655
1!
1+
0#
0&
0'
b0 5
01
00
0-
04
0)
#2660
0!
0+
#2665
1!
1+
1#
b10011100 %
b1011110 $
1'
11
b1011110 .
b10011100 /
1-
b1 6
#2670
0!
0+
#2675
1!
1+
1&
b1 5
10
14
b0 6
1)
#2680
0!
0+
#2685
1!
1+
0#
0&
0'
b0 5
01
00
0-
04
0)
#2690
0!
0+
#2695
1!
1+
1#
b11011001 %
b11010110 $
1'
11
b11010110 .
b11011001 /
1-
17
b1 6
#2700
0!
0+
#2705
1!
1+
1&
b1 5
10
12
1*
b0 6
14
1)
#2710
0!
0+
#2715
1!
1+
0#
0&
0'
b0 5
01
00
0-
02
0*
04
0)
#2720
0!
0+
#2725
1!
1+
1#
b11100001 %
b10111011 $
1'
11
b10111011 .
b11100001 /
1-
07
b1 6
#2730
0!
0+
#2735
1!
1+
1&
b1 5
10
14
b0 6
1)
#2740
0!
0+
#2745
1!
1+
0#
0&
0'
b0 5
01
00
0-
04
0)
#2750
0!
0+
#2755
1!
1+
1#
b10101100 %
b1101 $
1'
11
b1101 .
b10101100 /
1-
b1 6
#2760
0!
0+
#2765
1!
1+
1&
b1 5
10
14
b0 6
1)
#2770
0!
0+
#2775
1!
1+
0#
0&
0'
b0 5
01
00
0-
04
0)
#2780
0!
0+
#2785
1!
1+
1#
b10000011 %
b11001100 $
1'
11
b11001100 .
b10000011 /
1-
17
b1 6
#2790
0!
0+
#2795
1!
1+
1&
b1 5
10
12
1*
b0 6
14
1)
#2800
0!
0+
#2805
1!
1+
0#
0&
0'
b0 5
01
00
0-
02
0*
04
0)
#2810
0!
0+
#2815
1!
1+
1#
b0 %
b11111000 $
1'
11
b11111000 .
b0 /
1-
b1 6
#2820
0!
0+
#2825
1!
1+
1&
b1 5
10
12
1*
b0 6
14
1)
#2830
0!
0+
#2835
1!
1+
0#
0&
0'
b0 5
01
00
0-
02
0*
04
0)
#2840
0!
0+
#2845
1!
1+
1#
b11100000 %
b10010001 $
1'
11
b10010001 .
b11100000 /
1-
07
b1 6
#2850
0!
0+
#2855
1!
1+
1&
b1 5
10
14
b0 6
1)
#2860
0!
0+
#2865
1!
1+
0#
0&
0'
b0 5
01
00
0-
04
0)
#2870
0!
0+
#2875
1!
1+
1#
b1010000 %
b10010111 $
1'
11
b10010111 .
b1010000 /
1-
b1 6
#2880
0!
0+
